RTL/top_tb.vcd
$date
	Sun Sep 28 18:18:17 2025
$end
$version
	Icarus Verilog
$end
$timescale
	1ns
$end
$scope module top_tb $end
$var reg 1 ! clk $end
$var reg 1 " rst $end
$var integer 32 # i [31:0] $end
$scope module DUT $end
$var wire 1 ! clk $end
$var wire 1 " rst $end
$var wire 1 $ zero_top $end
$var wire 32 % pc_sel_mux_out [31:0] $end
$var wire 32 & mux_out_write_data [31:0] $end
$var wire 32 ' instruction_top [31:0] $end
$var wire 32 ( data_mem_read_out_top [31:0] $end
$var wire 32 ) data_mem_mux_out_top [31:0] $end
$var wire 1 * and_out_top $end
$var wire 32 + adder2_out_top [31:0] $end
$var wire 1 , RegWrite_top $end
$var wire 32 - RD2_top [31:0] $end
$var wire 32 . RD1_top [31:0] $end
$var wire 32 / PC_top [31:0] $end
$var wire 32 0 PC_plused_top [31:0] $end
$var wire 32 1 PC_next_mux_out [31:0] $end
$var wire 32 2 PC_addr_mux_out_top [31:0] $end
$var wire 1 3 MemtoReg_top $end
$var wire 1 4 MemWrite_top $end
$var wire 1 5 MemRead_top $end
$var wire 1 6 LUI_en_top $end
$var wire 1 7 JALr_en_top $end
$var wire 32 8 JAL_mux_out_top [31:0] $end
$var wire 1 9 JAL_en_top $end
$var wire 32 : ImmExt_top [31:0] $end
$var wire 1 ; Branch_top $end
$var wire 1 < AUIPC_en_top $end
$var wire 1 = ALUsrc_top $end
$var wire 32 > ALU_out_top [31:0] $end
$var wire 32 ? ALU_mux_out_top [31:0] $end
$var wire 4 @ ALU_ctrl_top [3:0] $end
$var wire 2 A ALUOp_top [1:0] $end
$scope module ALU $end
$var wire 4 B control_in [3:0] $end
$var wire 32 C B [31:0] $end
$var wire 32 D A [31:0] $end
$var reg 32 E ALU_out [31:0] $end
$var reg 1 $ zero $end
$upscope $end
$scope module ALU_mux $end
$var wire 1 = sel $end
$var wire 32 F mux_out [31:0] $end
$var wire 32 G B [31:0] $end
$var wire 32 H A [31:0] $end
$upscope $end
$scope module ALUctrl $end
$var wire 3 I fun3 [2:0] $end
$var wire 1 J fun7 $end
$var wire 2 K ALUOp [1:0] $end
$var reg 4 L control_out [3:0] $end
$upscope $end
$scope module BranchAdd $end
$var wire 32 M plus4_addr [31:0] $end
$var wire 32 N mux_in_addr [31:0] $end
$var wire 32 O ImmAddr [31:0] $end
$upscope $end
$scope module Imm $end
$var wire 7 P opcode [6:0] $end
$var wire 32 Q instruction [31:0] $end
$var reg 32 R ImmExt [31:0] $end
$upscope $end
$scope module PC $end
$var wire 1 ! clk $end
$var wire 1 " rst $end
$var wire 32 S PC_in [31:0] $end
$var reg 32 T PC_out [31:0] $end
$upscope $end
$scope module PC_adder $end
$var wire 32 U fromPC [31:0] $end
$var wire 32 V toPC [31:0] $end
$upscope $end
$scope module ctrl_unit $end
$var wire 7 W opcode [6:0] $end
$var reg 2 X ALUOp [1:0] $end
$var reg 1 = ALUSrc $end
$var reg 1 < AUIPC_en $end
$var reg 1 ; Branch $end
$var reg 1 9 JAL_en $end
$var reg 1 7 JALr_en $end
$var reg 1 6 LUI_en $end
$var reg 1 5 MemRead $end
$var reg 1 4 MemWrite $end
$var reg 1 3 MemtoReg $end
$var reg 1 , RegWrite $end
$upscope $end
$scope module datamem_unit $end
$var wire 1 5 MemRead $end
$var wire 1 4 MemWrite $end
$var wire 32 Y address [31:0] $end
$var wire 1 ! clk $end
$var wire 1 " rst $end
$var wire 32 Z write_data [31:0] $end
$var wire 32 [ read_data [31:0] $end
$var integer 32 \ k [31:0] $end
$upscope $end
$scope module date_mem_mux $end
$var wire 32 ] A [31:0] $end
$var wire 32 ^ B [31:0] $end
$var wire 1 3 sel $end
$var wire 32 _ mux_out [31:0] $end
$upscope $end
$scope module gate $end
$var wire 1 ; Branch $end
$var wire 1 * and_out $end
$var wire 1 $ zero $end
$upscope $end
$scope module gate_mux $end
$var wire 32 ` A [31:0] $end
$var wire 32 a B [31:0] $end
$var wire 1 * sel $end
$var wire 32 b mux_out [31:0] $end
$upscope $end
$scope module inst_mem $end
$var wire 1 ! clk $end
$var wire 32 c instruction_out [31:0] $end
$var wire 32 d read_address [31:0] $end
$var wire 1 " rst $end
$upscope $end
$scope module pc_sel_mux_J $end
$var wire 32 e A [31:0] $end
$var wire 32 f B [31:0] $end
$var wire 1 9 sel $end
$var wire 32 g mux_out [31:0] $end
$upscope $end
$scope module pc_sel_mux_Jr $end
$var wire 32 h A [31:0] $end
$var wire 32 i B [31:0] $end
$var wire 1 7 sel $end
$var wire 32 j mux_out [31:0] $end
$upscope $end
$scope module pc_sel_mux_U $end
$var wire 32 k B [31:0] $end
$var wire 1 < sel $end
$var wire 32 l mux_out [31:0] $end
$var wire 32 m A [31:0] $end
$upscope $end
$scope module regFile $end
$var wire 1 ! clk $end
$var wire 5 n rd [4:0] $end
$var wire 32 o read_data_1 [31:0] $end
$var wire 32 p read_data_2 [31:0] $end
$var wire 1 , reg_write $end
$var wire 5 q rs1 [4:0] $end
$var wire 5 r rs2 [4:0] $end
$var wire 1 " rst $end
$var wire 32 s write_data [31:0] $end
$var integer 32 t k [31:0] $end
$upscope $end
$scope module write_reg_mux $end
$var wire 32 u A [31:0] $end
$var wire 32 v B [31:0] $end
$var wire 1 6 sel $end
$var wire 32 w mux_out [31:0] $end
$upscope $end
$upscope $end
$upscope $end
$enddefinitions $end
$comment Show the parameter values. $end
$dumpall
$end
#0
$dumpvars
b100100 w
b11111111111111111111111111100000 v
b100100 u
b100000 t
b100100 s
b0 r
b10 q
b0 p
b100 o
b10 n
b100 m
b100 l
b0 k
b100 j
b100100 i
b100 h
b100 g
b100100 f
b100 e
b0 d
b11111110000000010000000100010011 c
b100 b
b11111111111111111111111111100000 a
b100 `
b100100 _
b0 ^
b100100 ]
b1000000 \
b0 [
b0 Z
b100100 Y
b10 X
b10011 W
b100 V
b0 U
b0 T
b100 S
b11111111111111111111111111100000 R
b11111110000000010000000100010011 Q
b10011 P
b11111111111111111111111111100000 O
b11111111111111111111111111100000 N
b0 M
b110 L
b10 K
1J
b0 I
b0 H
b11111111111111111111111111100000 G
b11111111111111111111111111100000 F
b100100 E
b100 D
b11111111111111111111111111100000 C
b110 B
b10 A
b110 @
b11111111111111111111111111100000 ?
b100100 >
1=
0<
0;
b11111111111111111111111111100000 :
09
b100 8
07
06
05
04
03
b100 2
b100 1
b100 0
b0 /
b100 .
b0 -
1,
b11111111111111111111111111100000 +
0*
b100100 )
b0 (
b11111110000000010000000100010011 '
b100100 &
b100 %
0$
b1000000 #
1"
0!
$end
#5
b1000 &
b1000 s
b1000 w
b1000 )
b1000 _
b1000 u
b11100 ?
b11100 C
b11100 F
0,
14
b0 A
b0 K
b0 X
b1000 >
b1000 E
b1000 Y
b1000 ]
b1000 f
b1000 i
b11100 :
b11100 G
b11100 O
b11100 R
b11100 v
b1000 1
b1000 S
b1000 j
b1000 8
b1000 g
b1000 h
b10 I
0J
b100011 P
b11100 n
b10000 -
b10000 H
b10000 Z
b10000 p
b1000 r
b100011 W
b100100 %
b100100 D
b100100 l
b1000 2
b1000 b
b1000 e
b100000010010111000100011 '
b100000010010111000100011 Q
b100000010010111000100011 c
b100100 .
b100100 m
b100100 o
b1000 0
b1000 V
b1000 `
b100000 +
b100000 N
b100000 a
b100 /
b100 M
b100 T
b100 U
b100 d
b100 k
1!
0"
#10
0!
#15
b1000100 &
b1000100 s
b1000100 w
b1000100 )
b1000100 _
b1000100 u
b1000100 >
b1000100 E
b1000100 Y
b1000100 ]
b1000100 f
b1000100 i
b100000 ?
b100000 C
b100000 F
b10 @
b10 B
b10 L
1,
04
b10 A
b10 K
b10 X
b100000 :
b100000 G
b100000 O
b100000 R
b100000 v
b1100 1
b1100 S
b1100 j
b1100 8
b1100 g
b1100 h
b0 I
b10011 P
b1000 n
b0 -
b0 H
b0 Z
b0 p
b0 r
b10011 W
b1100 2
b1100 b
b1100 e
b10000000010000010000010011 '
b10000000010000010000010011 Q
b10000000010000010000010011 c
b1100 0
b1100 V
b1100 `
b101000 +
b101000 N
b101000 a
b1000 /
b1000 M
b1000 T
b1000 U
b1000 d
b1000 k
1!
#20
0!
#25
b11 &
b11 s
b11 w
b11 )
b11 _
b11 u
b11 ?
b11 C
b11 F
b11 >
b11 E
b11 Y
b11 ]
b11 f
b11 i
b11 :
b11 G
b11 O
b11 R
b11 v
b10000 1
b10000 S
b10000 j
b0 %
b0 D
b0 l
b10000 8
b10000 g
b10000 h
b1111 n
b110 -
b110 H
b110 Z
b110 p
b11 r
b0 .
b0 m
b0 o
b0 q
b10000 2
b10000 b
b10000 e
b1100000000011110010011 '
b1100000000011110010011 Q
b1100000000011110010011 c
b10000 0
b10000 V
b10000 `
b1111 +
b1111 N
b1111 a
b1100 /
b1100 M
b1100 T
b1100 U
b1100 d
b1100 k
1!
#30
0!
#35
b110000 &
b110000 s
b110000 w
b110000 )
b110000 _
b110000 u
b11111111111111111111111111101100 ?
b11111111111111111111111111101100 C
b11111111111111111111111111101100 F
b110000 >
b110000 E
b110000 Y
b110000 ]
b110000 f
b110000 i
0,
14
b0 A
b0 K
b0 X
b11111111111111111111111111101100 :
b11111111111111111111111111101100 G
b11111111111111111111111111101100 O
b11111111111111111111111111101100 R
b11111111111111111111111111101100 v
b10100 1
b10100 S
b10100 j
b1000100 %
b1000100 D
b1000100 l
b10100 8
b10100 g
b10100 h
b10 I
1J
b100011 P
b1100 n
b11 -
b11 H
b11 Z
b11 p
b1111 r
b1000100 .
b1000100 m
b1000100 o
b1000 q
b100011 W
b10100 2
b10100 b
b10100 e
b11111110111101000010011000100011 '
b11111110111101000010011000100011 Q
b11111110111101000010011000100011 c
b10100 0
b10100 V
b10100 `
b11111111111111111111111111111100 +
b11111111111111111111111111111100 N
b11111111111111111111111111111100 a
b10000 /
b10000 M
b10000 T
b10000 U
b10000 d
b10000 k
1!
#40
0!
#45
b111 &
b111 s
b111 w
b111 )
b111 _
b111 u
b111 ?
b111 C
b111 F
b111 >
b111 E
b111 Y
b111 ]
b111 f
b111 i
1,
04
b10 A
b10 K
b10 X
b111 :
b111 G
b111 O
b111 R
b111 v
b11000 1
b11000 S
b11000 j
b0 %
b0 D
b0 l
b11000 8
b11000 g
b11000 h
b0 I
0J
b10011 P
b1111 n
b1110 -
b1110 H
b1110 Z
b1110 p
b111 r
b0 .
b0 m
b0 o
b0 q
b10011 W
b11000 2
b11000 b
b11000 e
b11100000000011110010011 '
b11100000000011110010011 Q
b11100000000011110010011 c
b11000 0
b11000 V
b11000 `
b11011 +
b11011 N
b11011 a
b10100 /
b10100 M
b10100 T
b10100 U
b10100 d
b10100 k
1!
#50
0!
#55
b101100 &
b101100 s
b101100 w
b101100 )
b101100 _
b101100 u
b11111111111111111111111111101000 ?
b11111111111111111111111111101000 C
b11111111111111111111111111101000 F
b101100 >
b101100 E
b101100 Y
b101100 ]
b101100 f
b101100 i
0,
14
b0 A
b0 K
b0 X
b11111111111111111111111111101000 :
b11111111111111111111111111101000 G
b11111111111111111111111111101000 O
b11111111111111111111111111101000 R
b11111111111111111111111111101000 v
b11100 1
b11100 S
b11100 j
b1000100 %
b1000100 D
b1000100 l
b11100 8
b11100 g
b11100 h
b10 I
1J
b100011 P
b1000 n
b111 -
b111 H
b111 Z
b111 p
b1111 r
b1000100 .
b1000100 m
b1000100 o
b1000 q
b100011 W
b11100 2
b11100 b
b11100 e
b11111110111101000010010000100011 '
b11111110111101000010010000100011 Q
b11111110111101000010010000100011 c
b11100 0
b11100 V
b11100 `
b0 +
b0 N
b0 a
b11000 /
b11000 M
b11000 T
b11000 U
b11000 d
b11000 k
1!
#60
0!
#65
b110000 >
b110000 E
b110000 Y
b110000 ]
b110000 f
b110000 i
b11 &
b11 s
b11 w
b11 )
b11 _
b11 u
b11 (
b11 [
b11 ^
b11111111111111111111111111101100 ?
b11111111111111111111111111101100 C
b11111111111111111111111111101100 F
13
1,
15
04
b11111111111111111111111111101100 :
b11111111111111111111111111101100 G
b11111111111111111111111111101100 O
b11111111111111111111111111101100 R
b11111111111111111111111111101100 v
b100000 1
b100000 S
b100000 j
b100000 8
b100000 g
b100000 h
b11 P
b1110 n
b11000 -
b11000 H
b11000 Z
b11000 p
b1100 r
b11 W
b100000 2
b100000 b
b100000 e
b11111110110001000010011100000011 '
b11111110110001000010011100000011 Q
b11111110110001000010011100000011 c
b100000 0
b100000 V
b100000 `
b1000 +
b1000 N
b1000 a
b11100 /
b11100 M
b11100 T
b11100 U
b11100 d
b11100 k
1!
#70
0!
#75
b111 &
b111 s
b111 w
b111 )
b111 _
b111 u
b111 (
b111 [
b111 ^
b101100 >
b101100 E
b101100 Y
b101100 ]
b101100 f
b101100 i
b11111111111111111111111111101000 ?
b11111111111111111111111111101000 C
b11111111111111111111111111101000 F
b11111111111111111111111111101000 :
b11111111111111111111111111101000 G
b11111111111111111111111111101000 O
b11111111111111111111111111101000 R
b11111111111111111111111111101000 v
b100100 1
b100100 S
b100100 j
b100100 8
b100100 g
b100100 h
b1111 n
b1000100 -
b1000100 H
b1000100 Z
b1000100 p
b1000 r
b100100 2
b100100 b
b100100 e
b11111110100001000010011110000011 '
b11111110100001000010011110000011 Q
b11111110100001000010011110000011 c
b100100 0
b100100 V
b100100 `
b1000 +
b1000 N
b1000 a
b100000 /
b100000 M
b100000 T
b100000 U
b100000 d
b100000 k
1!
#80
0!
#85
b1010 &
b1010 s
b1010 w
b1010 )
b1010 _
b1010 u
b0 (
b0 [
b0 ^
b111 ?
b111 C
b111 F
b1010 >
b1010 E
b1010 Y
b1010 ]
b1010 f
b1010 i
0=
03
05
b10 A
b10 K
b10 X
b0 :
b0 G
b0 O
b0 R
b0 v
b101000 1
b101000 S
b101000 j
b11 %
b11 D
b11 l
b101000 8
b101000 g
b101000 h
b0 I
0J
b110011 P
b111 -
b111 H
b111 Z
b111 p
b1111 r
b11 .
b11 m
b11 o
b1110 q
b110011 W
b101000 2
b101000 b
b101000 e
b111101110000011110110011 '
b111101110000011110110011 Q
b111101110000011110110011 c
b101000 0
b101000 V
b101000 `
b100100 +
b100100 N
b100100 a
b100100 /
b100100 M
b100100 T
b100100 U
b100100 d
b100100 k
1!
#90
0!
#95
b101000 &
b101000 s
b101000 w
b101000 )
b101000 _
b101000 u
b11111111111111111111111111100100 :
b11111111111111111111111111100100 G
b11111111111111111111111111100100 O
b11111111111111111111111111100100 R
b11111111111111111111111111100100 v
1=
0,
14
b0 A
b0 K
b0 X
b101000 >
b101000 E
b101000 Y
b101000 ]
b101000 f
b101000 i
b101100 1
b101100 S
b101100 j
b1000100 %
b1000100 D
b1000100 l
b101100 8
b101100 g
b101100 h
b10 I
1J
b100011 P
b100 n
b1000100 .
b1000100 m
b1000100 o
b1000 q
b100011 W
b101100 2
b101100 b
b101100 e
b11111110111101000010001000100011 '
b11111110111101000010001000100011 Q
b11111110111101000010001000100011 c
b11111111111111111111111111100100 ?
b11111111111111111111111111100100 C
b11111111111111111111111111100100 F
b101100 0
b101100 V
b101100 `
b1100 +
b1100 N
b1100 a
b101000 /
b101000 M
b101000 T
b101000 U
b101000 d
b101000 k
b1010 -
b1010 H
b1010 Z
b1010 p
1!
#100
0!
#105
b1010 &
b1010 s
b1010 w
b1010 )
b1010 _
b1010 u
b1010 (
b1010 [
b1010 ^
13
1,
15
04
b11111111111111111111111111100100 :
b11111111111111111111111111100100 G
b11111111111111111111111111100100 O
b11111111111111111111111111100100 R
b11111111111111111111111111100100 v
b110000 1
b110000 S
b110000 j
b110000 8
b110000 g
b110000 h
b11 P
b1111 n
b1000 -
b1000 H
b1000 Z
b1000 p
b100 r
b11 W
b110000 2
b110000 b
b110000 e
b11111110010001000010011110000011 '
b11111110010001000010011110000011 Q
b11111110010001000010011110000011 c
b110000 0
b110000 V
b110000 `
b10000 +
b10000 N
b10000 a
b101100 /
b101100 M
b101100 T
b101100 U
b101100 d
b101100 k
1!
#110
0!
#115
b1010 &
b1010 s
b1010 w
b1010 )
b1010 _
b1010 u
b0 (
b0 [
b0 ^
b0 ?
b0 C
b0 F
b1010 >
b1010 E
b1010 Y
b1010 ]
b1010 f
b1010 i
03
05
b10 A
b10 K
b10 X
b0 :
b0 G
b0 O
b0 R
b0 v
b110100 1
b110100 S
b110100 j
b1010 %
b1010 D
b1010 l
b110100 8
b110100 g
b110100 h
b0 I
0J
b10011 P
b1010 n
b0 -
b0 H
b0 Z
b0 p
b0 r
b1010 .
b1010 m
b1010 o
b1111 q
b10011 W
b110100 2
b110100 b
b110100 e
b1111000010100010011 '
b1111000010100010011 Q
b1111000010100010011 c
b110100 0
b110100 V
b110100 `
b110000 +
b110000 N
b110000 a
b110000 /
b110000 M
b110000 T
b110000 U
b110000 d
b110000 k
1!
#120
0!
#125
bx (
bx [
bx ^
bx &
bx s
bx w
bx )
bx _
bx u
b11100 ?
b11100 C
b11100 F
b1000000 >
b1000000 E
b1000000 Y
b1000000 ]
b1000000 f
b1000000 i
13
15
b0 A
b0 K
b0 X
b11100 :
b11100 G
b11100 O
b11100 R
b11100 v
b111000 1
b111000 S
b111000 j
b100100 %
b100100 D
b100100 l
b111000 8
b111000 g
b111000 h
b10 I
b11 P
b1000 n
b111000 -
b111000 H
b111000 Z
b111000 p
b11100 r
b100100 .
b100100 m
b100100 o
b10 q
b11 W
b111000 2
b111000 b
b111000 e
b1110000010010010000000011 '
b1110000010010010000000011 Q
b1110000010010010000000011 c
b111000 0
b111000 V
b111000 `
b1010000 +
b1010000 N
b1010000 a
b110100 /
b110100 M
b110100 T
b110100 U
b110100 d
b110100 k
1!
#130
0!
#135
b1000100 >
b1000100 E
b1000100 Y
b1000100 ]
b1000100 f
b1000100 i
b1000100 &
b1000100 s
b1000100 w
b1000100 )
b1000100 _
b1000100 u
b0 (
b0 [
b0 ^
b100000 ?
b100000 C
b100000 F
03
05
b10 A
b10 K
b10 X
b100000 :
b100000 G
b100000 O
b100000 R
b100000 v
b111100 1
b111100 S
b111100 j
b111100 8
b111100 g
b111100 h
b0 I
b10011 P
b10 n
b0 -
b0 H
b0 Z
b0 p
b0 r
b10011 W
b111100 2
b111100 b
b111100 e
b10000000010000000100010011 '
b10000000010000000100010011 Q
b10000000010000000100010011 c
b111100 0
b111100 V
b111100 `
b1011000 +
b1011000 N
b1011000 a
b111000 /
b111000 M
b111000 T
b111000 U
b111000 d
b111000 k
1!
#140
0!
#145
b10 &
b10 s
b10 w
b10 )
b10 _
b10 u
b0 ?
b0 C
b0 F
0,
17
b10 >
b10 E
b10 Y
b10 ]
b10 f
b10 i
b0 :
b0 G
b0 O
b0 R
b0 v
b10 1
b10 S
b10 j
b1000000 8
b1000000 g
b1000000 h
b1100111 P
b0 n
b1 q
b1100111 W
b10 %
b10 D
b10 l
b1000000 2
b1000000 b
b1000000 e
b1000000001100111 '
b1000000001100111 Q
b1000000001100111 c
b10 .
b10 m
b10 o
b1000000 0
b1000000 V
b1000000 `
b111100 +
b111100 N
b111100 a
b111100 /
b111100 M
b111100 T
b111100 U
b111100 d
b111100 k
1!
#150
0!
#155
b1100100 &
b1100100 s
b1100100 w
b1100100 )
b1100100 _
b1100100 u
b110 1
b110 S
b110 j
b11111111111111111111111111100000 ?
b11111111111111111111111111100000 C
b11111111111111111111111111100000 F
b1100100 >
b1100100 E
b1100100 Y
b1100100 ]
b1100100 f
b1100100 i
b110 @
b110 B
b110 L
1,
07
b11111111111111111111111111100000 :
b11111111111111111111111111100000 G
b11111111111111111111111111100000 O
b11111111111111111111111111100000 R
b11111111111111111111111111100000 v
b1000100 %
b1000100 D
b1000100 l
b110 8
b110 g
b110 h
1J
b10011 P
b10 n
b1000100 .
b1000100 m
b1000100 o
b10 q
b10011 W
b110 2
b110 b
b110 e
b11111110000000010000000100010011 '
b11111110000000010000000100010011 Q
b11111110000000010000000100010011 c
b110 0
b110 V
b110 `
b11111111111111111111111111100010 +
b11111111111111111111111111100010 N
b11111111111111111111111111100010 a
b10 /
b10 M
b10 T
b10 U
b10 d
b10 k
1!
#160
0!
#165
b1001000 &
b1001000 s
b1001000 w
b1001000 )
b1001000 _
b1001000 u
b11100 ?
b11100 C
b11100 F
0,
14
b0 A
b0 K
b0 X
b1001000 >
b1001000 E
b1001000 Y
b1001000 ]
b1001000 f
b1001000 i
b11100 :
b11100 G
b11100 O
b11100 R
b11100 v
b1010 1
b1010 S
b1010 j
b1010 8
b1010 g
b1010 h
b10 I
0J
b100011 P
b11100 n
bx -
bx H
bx Z
bx p
b1000 r
b100011 W
b1100100 %
b1100100 D
b1100100 l
b1010 2
b1010 b
b1010 e
b100000010010111000100011 '
b100000010010111000100011 Q
b100000010010111000100011 c
b1100100 .
b1100100 m
b1100100 o
b1010 0
b1010 V
b1010 `
b100010 +
b100010 N
b100010 a
b110 /
b110 M
b110 T
b110 U
b110 d
b110 k
1!
#170
0!
#175
b10000100 &
b10000100 s
b10000100 w
b10000100 )
b10000100 _
b10000100 u
b10000100 >
b10000100 E
b10000100 Y
b10000100 ]
b10000100 f
b10000100 i
b100000 ?
b100000 C
b100000 F
b10 @
b10 B
b10 L
1,
04
b10 A
b10 K
b10 X
b100000 :
b100000 G
b100000 O
b100000 R
b100000 v
b1110 1
b1110 S
b1110 j
b1110 8
b1110 g
b1110 h
b0 I
b10011 P
b1000 n
b0 -
b0 H
b0 Z
b0 p
b0 r
b10011 W
b1110 2
b1110 b
b1110 e
b10000000010000010000010011 '
b10000000010000010000010011 Q
b10000000010000010000010011 c
b1110 0
b1110 V
b1110 `
b101010 +
b101010 N
b101010 a
b1010 /
b1010 M
b1010 T
b1010 U
b1010 d
b1010 k
1!
#180
0!
#185
b11 &
b11 s
b11 w
b11 )
b11 _
b11 u
b11 ?
b11 C
b11 F
b11 >
b11 E
b11 Y
b11 ]
b11 f
b11 i
b11 :
b11 G
b11 O
b11 R
b11 v
b10010 1
b10010 S
b10010 j
b0 %
b0 D
b0 l
b10010 8
b10010 g
b10010 h
b1111 n
b110 -
b110 H
b110 Z
b110 p
b11 r
b0 .
b0 m
b0 o
b0 q
b10010 2
b10010 b
b10010 e
b1100000000011110010011 '
b1100000000011110010011 Q
b1100000000011110010011 c
b10010 0
b10010 V
b10010 `
b10001 +
b10001 N
b10001 a
b1110 /
b1110 M
b1110 T
b1110 U
b1110 d
b1110 k
1!
#190
0!
#195
b1110000 &
b1110000 s
b1110000 w
b1110000 )
b1110000 _
b1110000 u
b11111111111111111111111111101100 ?
b11111111111111111111111111101100 C
b11111111111111111111111111101100 F
b1110000 >
b1110000 E
b1110000 Y
b1110000 ]
b1110000 f
b1110000 i
0,
14
b0 A
b0 K
b0 X
b11111111111111111111111111101100 :
b11111111111111111111111111101100 G
b11111111111111111111111111101100 O
b11111111111111111111111111101100 R
b11111111111111111111111111101100 v
b10110 1
b10110 S
b10110 j
b10000100 %
b10000100 D
b10000100 l
b10110 8
b10110 g
b10110 h
b10 I
1J
b100011 P
b1100 n
b11 -
b11 H
b11 Z
b11 p
b1111 r
b10000100 .
b10000100 m
b10000100 o
b1000 q
b100011 W
b10110 2
b10110 b
b10110 e
b11111110111101000010011000100011 '
b11111110111101000010011000100011 Q
b11111110111101000010011000100011 c
b10110 0
b10110 V
b10110 `
b11111111111111111111111111111110 +
b11111111111111111111111111111110 N
b11111111111111111111111111111110 a
b10010 /
b10010 M
b10010 T
b10010 U
b10010 d
b10010 k
1!
#200
0!
#205
b111 &
b111 s
b111 w
b111 )
b111 _
b111 u
b111 ?
b111 C
b111 F
b111 >
b111 E
b111 Y
b111 ]
b111 f
b111 i
1,
04
b10 A
b10 K
b10 X
b111 :
b111 G
b111 O
b111 R
b111 v
b11010 1
b11010 S
b11010 j
b0 %
b0 D
b0 l
b11010 8
b11010 g
b11010 h
b0 I
0J
b10011 P
b1111 n
b1110 -
b1110 H
b1110 Z
b1110 p
b111 r
b0 .
b0 m
b0 o
b0 q
b10011 W
b11010 2
b11010 b
b11010 e
b11100000000011110010011 '
b11100000000011110010011 Q
b11100000000011110010011 c
b11010 0
b11010 V
b11010 `
b11101 +
b11101 N
b11101 a
b10110 /
b10110 M
b10110 T
b10110 U
b10110 d
b10110 k
1!
#210
0!
#215
b1101100 &
b1101100 s
b1101100 w
b1101100 )
b1101100 _
b1101100 u
b11111111111111111111111111101000 ?
b11111111111111111111111111101000 C
b11111111111111111111111111101000 F
b1101100 >
b1101100 E
b1101100 Y
b1101100 ]
b1101100 f
b1101100 i
0,
14
b0 A
b0 K
b0 X
b11111111111111111111111111101000 :
b11111111111111111111111111101000 G
b11111111111111111111111111101000 O
b11111111111111111111111111101000 R
b11111111111111111111111111101000 v
b11110 1
b11110 S
b11110 j
b10000100 %
b10000100 D
b10000100 l
b11110 8
b11110 g
b11110 h
b10 I
1J
b100011 P
b1000 n
b111 -
b111 H
b111 Z
b111 p
b1111 r
b10000100 .
b10000100 m
b10000100 o
b1000 q
b100011 W
b11110 2
b11110 b
b11110 e
b11111110111101000010010000100011 '
b11111110111101000010010000100011 Q
b11111110111101000010010000100011 c
b11110 0
b11110 V
b11110 `
b10 +
b10 N
b10 a
b11010 /
b11010 M
b11010 T
b11010 U
b11010 d
b11010 k
1!
#220
0!
#225
b1110000 >
b1110000 E
b1110000 Y
b1110000 ]
b1110000 f
b1110000 i
bx &
bx s
bx w
bx )
bx _
bx u
bx (
bx [
bx ^
b11111111111111111111111111101100 ?
b11111111111111111111111111101100 C
b11111111111111111111111111101100 F
13
1,
15
04
b11111111111111111111111111101100 :
b11111111111111111111111111101100 G
b11111111111111111111111111101100 O
b11111111111111111111111111101100 R
b11111111111111111111111111101100 v
b100010 1
b100010 S
b100010 j
b100010 8
b100010 g
b100010 h
b11 P
b1110 n
b11000 -
b11000 H
b11000 Z
b11000 p
b1100 r
b11 W
b100010 2
b100010 b
b100010 e
b11111110110001000010011100000011 '
b11111110110001000010011100000011 Q
b11111110110001000010011100000011 c
b100010 0
b100010 V
b100010 `
b1010 +
b1010 N
b1010 a
b11110 /
b11110 M
b11110 T
b11110 U
b11110 d
b11110 k
1!
#230
0!
#235
b1101100 >
b1101100 E
b1101100 Y
b1101100 ]
b1101100 f
b1101100 i
b11111111111111111111111111101000 ?
b11111111111111111111111111101000 C
b11111111111111111111111111101000 F
b11111111111111111111111111101000 :
b11111111111111111111111111101000 G
b11111111111111111111111111101000 O
b11111111111111111111111111101000 R
b11111111111111111111111111101000 v
b100110 1
b100110 S
b100110 j
b100110 8
b100110 g
b100110 h
b1111 n
b10000100 -
b10000100 H
b10000100 Z
b10000100 p
b1000 r
b100110 2
b100110 b
b100110 e
b11111110100001000010011110000011 '
b11111110100001000010011110000011 Q
b11111110100001000010011110000011 c
b100110 0
b100110 V
b100110 `
b1010 +
b1010 N
b1010 a
b100010 /
b100010 M
b100010 T
b100010 U
b100010 d
b100010 k
1!
#240
0!
#245
b0 (
b0 [
b0 ^
bx ?
bx C
bx F
bx >
bx E
bx Y
bx ]
bx f
bx i
0=
03
05
b10 A
b10 K
b10 X
b0 :
b0 G
b0 O
b0 R
b0 v
b101010 1
b101010 S
b101010 j
bx %
bx D
bx l
b101010 8
b101010 g
b101010 h
b0 I
0J
b110011 P
bx -
bx H
bx Z
bx p
b1111 r
bx .
bx m
bx o
b1110 q
b110011 W
b101010 2
b101010 b
b101010 e
b111101110000011110110011 '
b111101110000011110110011 Q
b111101110000011110110011 c
b101010 0
b101010 V
b101010 `
b100110 +
b100110 N
b100110 a
b100110 /
b100110 M
b100110 T
b100110 U
b100110 d
b100110 k
1!
#250
0!
#255
b1101000 &
b1101000 s
b1101000 w
b1101000 )
b1101000 _
b1101000 u
b1101000 >
b1101000 E
b1101000 Y
b1101000 ]
b1101000 f
b1101000 i
b11111111111111111111111111100100 ?
b11111111111111111111111111100100 C
b11111111111111111111111111100100 F
b11111111111111111111111111100100 :
b11111111111111111111111111100100 G
b11111111111111111111111111100100 O
b11111111111111111111111111100100 R
b11111111111111111111111111100100 v
1=
0,
14
b0 A
b0 K
b0 X
b101110 1
b101110 S
b101110 j
b10000100 %
b10000100 D
b10000100 l
b101110 8
b101110 g
b101110 h
b10 I
1J
b100011 P
b100 n
b10000100 .
b10000100 m
b10000100 o
b1000 q
b100011 W
b101110 2
b101110 b
b101110 e
b11111110111101000010001000100011 '
b11111110111101000010001000100011 Q
b11111110111101000010001000100011 c
b101110 0
b101110 V
b101110 `
b1110 +
b1110 N
b1110 a
b101010 /
b101010 M
b101010 T
b101010 U
b101010 d
b101010 k
1!
#260
0!
#265
bx &
bx s
bx w
bx )
bx _
bx u
bx (
bx [
bx ^
13
1,
15
04
b11111111111111111111111111100100 :
b11111111111111111111111111100100 G
b11111111111111111111111111100100 O
b11111111111111111111111111100100 R
b11111111111111111111111111100100 v
b110010 1
b110010 S
b110010 j
b110010 8
b110010 g
b110010 h
b11 P
b1111 n
b1000 -
b1000 H
b1000 Z
b1000 p
b100 r
b11 W
b110010 2
b110010 b
b110010 e
b11111110010001000010011110000011 '
b11111110010001000010011110000011 Q
b11111110010001000010011110000011 c
b110010 0
b110010 V
b110010 `
b10010 +
b10010 N
b10010 a
b101110 /
b101110 M
b101110 T
b101110 U
b101110 d
b101110 k
1!
#270
0!
